chrom	start	end
1	1	50000000
1	50000001	75000000
1	75000001	100000000
1	100000001	125000000
1	125000001	150000000
1	150000001	175000000
1	175000001	200000000
1	200000001	249250620
2	1	50000000
2	50000001	75000000
2	75000001	100000000
2	100000001	125000000
2	125000001	150000000
2	150000001	175000000
2	175000001	200000000
2	200000001	243199372
3	1	50000000
3	50000001	75000000
3	75000001	100000000
3	100000001	125000000
3	125000001	150000000
3	150000001	198022429
4	1	50000000
4	50000001	75000000
4	75000001	100000000
4	100000001	125000000
4	125000001	150000000
4	150000001	191154275
5	1	50000000
5	50000001	75000000
5	75000001	100000000
5	100000001	125000000
5	125000001	150000000
5	150000001	180915259
6	1	50000000
6	50000001	75000000
6	75000001	100000000
6	100000001	125000000
6	125000001	171115066
7	1	50000000
7	50000001	75000000
7	75000001	100000000
7	100000001	125000000
7	125000001	159138662
8	1	50000000
8	50000001	75000000
8	75000001	100000000
8	100000001	146364021
9	1	50000000
9	50000001	75000000
9	75000001	100000000
9	100000001	141213430
10	1	50000000
10	50000001	75000000
10	75000001	100000000
10	100000001	135534746
11	1	50000000
11	50000001	75000000
11	75000001	100000000
11	100000001	135006515
12	1	50000000
12	50000001	75000000
12	75000001	100000000
12	100000001	133851894
13	1	50000000
13	50000001	75000000
13	75000001	115169877
14	1	50000000
14	50000001	75000000
14	75000001	107349539
15	1	50000000
15	50000001	75000000
15	75000001	102531391
16	1	50000000
16	50000001	90354752
17	1	50000000
17	50000001	81195209
18	1	50000000
18	50000001	78077247
19	1	59128982
20	1	63025519
21	1	48129894
22	1	51304565
X	1	50000000
X	50000001	75000000
X	75000001	100000000
X	100000001	125000000
X	125000001	155270559
Y	1	59373565
